graph social_network{
Alice -- Bob [label = 1]
Bob -- Gail [label = 1]
Irene -- Gail [label = 1]
Carl -- Alice [label = 1]
Gail -- Harry [label = 1]
Irene -- Jen [label = 1]
Alice -- David [label = 1]
Harry -- Jen [label = 1]
Ernst -- Frank [label = 1]
Alice -- Ernst [label = 1]
Jen -- Gail [label = 1]
David -- Carl [label = 1]
Alice -- Frank [label = 1]
Harry -- Irene [label = 1]
Carl -- Frank [label = 1]
}